Connectivity query for yakuba neurons — dyak_connection_table • yakuba
…
#> 719            T1         06A
#> 720            T2        <NA>
#> 721            T1        <NA>
#> 722            T1        <NA>
#> 723            T2         03B
#> 724            T3         04B
#> 725            T2         13A
#> 726            T3        <NA>
#> 727            T1        <NA>
#> 728            T3         13A
#> 729            T1         16B
#> 730            T1         16B
dyak_connection_table("DNa02", partners = "outputs", summary = TRUE)
#> Warning: NAs introduced by coercion to integer64 range
#> # A tibble: 717 × 12
#>    partner prepost weight name  type.x       n class       group type.y somaSide
#>      <dbl>   <dbl>  <int> <lgl> <chr>    <int> <chr>       <int> <chr>  <chr>   
#>  1  501854       1    153 NA    IN08A006     1 intrinsic … 10887 IN08A… R       
#>  2   10628       1    132 NA    IN19A003     1 intrinsic … 10628 IN19A… L       
#>  3   10756       1    126 NA    IN19A003     1 intrinsic … 10628 IN19A… R       
#>  4   10887       1    118 NA    IN08A006     1 intrinsic … 10887 IN08A… L       
#>  5   10412       1    115 NA    IN19A003     1 intrinsic … 10412 IN19A… R       
#>  6   10629       1    110 NA    IN19A003     1 intrinsic … 10412 IN19A… L       
#>  7   10936       1     96 NA    IN08A006     1 intrinsic … 10627 IN08A… R       
#>  8   11649       1     88 NA    IN19A003     1 intrinsic … 11539 IN19A… R       
#>  9   10452       1     88 NA    IN08A006     1 intrinsic … 10452 IN08A… R       
#> 10   11772       1     87 NA    IN07B009     1 intrinsic … 11051 IN07B… R       
#> # ℹ 707 more rows
#> # ℹ 2 more variables: somaNeuromere <chr>, hemilineage <chr>
…
